﻿DEBUG 2018-10-04 12:05:45,065 [1    ] Abp.Modules.AbpModuleManager             - Loading Abp modules...
DEBUG 2018-10-04 12:05:45,130 [1    ] Abp.Modules.AbpModuleManager             - Found 9 ABP modules in total.
DEBUG 2018-10-04 12:05:45,892 [1    ] Abp.Modules.AbpModuleManager             - Loaded module: IContestPro.Migrator.IContestProMigratorModule, IContestPro.Migrator, Version=1.0.0.0, Culture=neutral, PublicKeyToken=null
DEBUG 2018-10-04 12:05:45,896 [1    ] Abp.Modules.AbpModuleManager             - Loaded module: IContestPro.EntityFrameworkCore.IContestProEntityFrameworkModule, IContestPro.EntityFrameworkCore, Version=1.0.0.0, Culture=neutral, PublicKeyToken=null
DEBUG 2018-10-04 12:05:45,897 [1    ] Abp.Modules.AbpModuleManager             - Loaded module: IContestPro.IContestProCoreModule, IContestPro.Core, Version=1.0.0.0, Culture=neutral, PublicKeyToken=null
DEBUG 2018-10-04 12:05:45,897 [1    ] Abp.Modules.AbpModuleManager             - Loaded module: Abp.Zero.AbpZeroCoreModule, Abp.ZeroCore, Version=3.8.3.0, Culture=neutral, PublicKeyToken=null
DEBUG 2018-10-04 12:05:45,898 [1    ] Abp.Modules.AbpModuleManager             - Loaded module: Abp.Zero.AbpZeroCommonModule, Abp.Zero.Common, Version=3.8.3.0, Culture=neutral, PublicKeyToken=null
DEBUG 2018-10-04 12:05:45,898 [1    ] Abp.Modules.AbpModuleManager             - Loaded module: Abp.AbpKernelModule, Abp, Version=3.8.3.0, Culture=neutral, PublicKeyToken=null
DEBUG 2018-10-04 12:05:45,899 [1    ] Abp.Modules.AbpModuleManager             - Loaded module: Abp.Zero.EntityFrameworkCore.AbpZeroCoreEntityFrameworkCoreModule, Abp.ZeroCore.EntityFrameworkCore, Version=3.8.3.0, Culture=neutral, PublicKeyToken=null
DEBUG 2018-10-04 12:05:45,900 [1    ] Abp.Modules.AbpModuleManager             - Loaded module: Abp.EntityFrameworkCore.AbpEntityFrameworkCoreModule, Abp.EntityFrameworkCore, Version=3.8.3.0, Culture=neutral, PublicKeyToken=null
DEBUG 2018-10-04 12:05:45,900 [1    ] Abp.Modules.AbpModuleManager             - Loaded module: Abp.EntityFramework.AbpEntityFrameworkCommonModule, Abp.EntityFramework.Common, Version=3.8.3.0, Culture=neutral, PublicKeyToken=null
DEBUG 2018-10-04 12:05:45,906 [1    ] Abp.Modules.AbpModuleManager             - 9 modules loaded.
DEBUG 2018-10-04 12:07:41,120 [1    ] Abp.Modules.AbpModuleManager             - Loading Abp modules...
DEBUG 2018-10-04 12:07:41,171 [1    ] Abp.Modules.AbpModuleManager             - Found 9 ABP modules in total.
DEBUG 2018-10-04 12:07:41,751 [1    ] Abp.Modules.AbpModuleManager             - Loaded module: IContestPro.Migrator.IContestProMigratorModule, IContestPro.Migrator, Version=1.0.0.0, Culture=neutral, PublicKeyToken=null
DEBUG 2018-10-04 12:07:41,758 [1    ] Abp.Modules.AbpModuleManager             - Loaded module: IContestPro.EntityFrameworkCore.IContestProEntityFrameworkModule, IContestPro.EntityFrameworkCore, Version=1.0.0.0, Culture=neutral, PublicKeyToken=null
DEBUG 2018-10-04 12:07:41,759 [1    ] Abp.Modules.AbpModuleManager             - Loaded module: IContestPro.IContestProCoreModule, IContestPro.Core, Version=1.0.0.0, Culture=neutral, PublicKeyToken=null
DEBUG 2018-10-04 12:07:41,760 [1    ] Abp.Modules.AbpModuleManager             - Loaded module: Abp.Zero.AbpZeroCoreModule, Abp.ZeroCore, Version=3.8.3.0, Culture=neutral, PublicKeyToken=null
DEBUG 2018-10-04 12:07:41,761 [1    ] Abp.Modules.AbpModuleManager             - Loaded module: Abp.Zero.AbpZeroCommonModule, Abp.Zero.Common, Version=3.8.3.0, Culture=neutral, PublicKeyToken=null
DEBUG 2018-10-04 12:07:41,762 [1    ] Abp.Modules.AbpModuleManager             - Loaded module: Abp.AbpKernelModule, Abp, Version=3.8.3.0, Culture=neutral, PublicKeyToken=null
DEBUG 2018-10-04 12:07:41,763 [1    ] Abp.Modules.AbpModuleManager             - Loaded module: Abp.Zero.EntityFrameworkCore.AbpZeroCoreEntityFrameworkCoreModule, Abp.ZeroCore.EntityFrameworkCore, Version=3.8.3.0, Culture=neutral, PublicKeyToken=null
DEBUG 2018-10-04 12:07:41,765 [1    ] Abp.Modules.AbpModuleManager             - Loaded module: Abp.EntityFrameworkCore.AbpEntityFrameworkCoreModule, Abp.EntityFrameworkCore, Version=3.8.3.0, Culture=neutral, PublicKeyToken=null
DEBUG 2018-10-04 12:07:41,766 [1    ] Abp.Modules.AbpModuleManager             - Loaded module: Abp.EntityFramework.AbpEntityFrameworkCommonModule, Abp.EntityFramework.Common, Version=3.8.3.0, Culture=neutral, PublicKeyToken=null
DEBUG 2018-10-04 12:07:41,774 [1    ] Abp.Modules.AbpModuleManager             - 9 modules loaded.
DEBUG 2018-10-04 12:07:42,279 [1    ] ameworkCore.AbpEntityFrameworkCoreModule - Registering DbContext: IContestPro.EntityFrameworkCore.IContestProDbContext, IContestPro.EntityFrameworkCore, Version=1.0.0.0, Culture=neutral, PublicKeyToken=null
DEBUG 2018-10-04 12:07:43,076 [1    ] Abp.Localization.LocalizationManager     - Initializing 3 localization sources.
DEBUG 2018-10-04 12:07:43,525 [1    ] Abp.Localization.LocalizationManager     - Initialized localization source: Abp
DEBUG 2018-10-04 12:07:44,172 [1    ] Abp.Localization.LocalizationManager     - Initialized localization source: AbpZero
DEBUG 2018-10-04 12:07:44,456 [1    ] Abp.Localization.LocalizationManager     - Initialized localization source: IContestPro
INFO  2018-10-04 12:07:44,896 [1    ] IContestPro.Migrator.Log                 - Host database: server=localhost;database=IContestProDb;trusted_connection=True
INFO  2018-10-04 12:07:44,896 [1    ] IContestPro.Migrator.Log                 - Continue to migration for this host database and all tenants..? (Y/N): 
DEBUG 2018-10-04 12:09:27,126 [1    ] Abp.Modules.AbpModuleManager             - Loading Abp modules...
DEBUG 2018-10-04 12:09:27,181 [1    ] Abp.Modules.AbpModuleManager             - Found 9 ABP modules in total.
DEBUG 2018-10-04 12:09:27,682 [1    ] Abp.Modules.AbpModuleManager             - Loaded module: IContestPro.Migrator.IContestProMigratorModule, IContestPro.Migrator, Version=1.0.0.0, Culture=neutral, PublicKeyToken=null
DEBUG 2018-10-04 12:09:27,689 [1    ] Abp.Modules.AbpModuleManager             - Loaded module: IContestPro.EntityFrameworkCore.IContestProEntityFrameworkModule, IContestPro.EntityFrameworkCore, Version=1.0.0.0, Culture=neutral, PublicKeyToken=null
DEBUG 2018-10-04 12:09:27,690 [1    ] Abp.Modules.AbpModuleManager             - Loaded module: IContestPro.IContestProCoreModule, IContestPro.Core, Version=1.0.0.0, Culture=neutral, PublicKeyToken=null
DEBUG 2018-10-04 12:09:27,690 [1    ] Abp.Modules.AbpModuleManager             - Loaded module: Abp.Zero.AbpZeroCoreModule, Abp.ZeroCore, Version=3.8.3.0, Culture=neutral, PublicKeyToken=null
DEBUG 2018-10-04 12:09:27,691 [1    ] Abp.Modules.AbpModuleManager             - Loaded module: Abp.Zero.AbpZeroCommonModule, Abp.Zero.Common, Version=3.8.3.0, Culture=neutral, PublicKeyToken=null
DEBUG 2018-10-04 12:09:27,691 [1    ] Abp.Modules.AbpModuleManager             - Loaded module: Abp.AbpKernelModule, Abp, Version=3.8.3.0, Culture=neutral, PublicKeyToken=null
DEBUG 2018-10-04 12:09:27,692 [1    ] Abp.Modules.AbpModuleManager             - Loaded module: Abp.Zero.EntityFrameworkCore.AbpZeroCoreEntityFrameworkCoreModule, Abp.ZeroCore.EntityFrameworkCore, Version=3.8.3.0, Culture=neutral, PublicKeyToken=null
DEBUG 2018-10-04 12:09:27,693 [1    ] Abp.Modules.AbpModuleManager             - Loaded module: Abp.EntityFrameworkCore.AbpEntityFrameworkCoreModule, Abp.EntityFrameworkCore, Version=3.8.3.0, Culture=neutral, PublicKeyToken=null
DEBUG 2018-10-04 12:09:27,694 [1    ] Abp.Modules.AbpModuleManager             - Loaded module: Abp.EntityFramework.AbpEntityFrameworkCommonModule, Abp.EntityFramework.Common, Version=3.8.3.0, Culture=neutral, PublicKeyToken=null
DEBUG 2018-10-04 12:09:27,703 [1    ] Abp.Modules.AbpModuleManager             - 9 modules loaded.
DEBUG 2018-10-04 12:09:28,327 [1    ] ameworkCore.AbpEntityFrameworkCoreModule - Registering DbContext: IContestPro.EntityFrameworkCore.IContestProDbContext, IContestPro.EntityFrameworkCore, Version=1.0.0.0, Culture=neutral, PublicKeyToken=null
DEBUG 2018-10-04 12:09:29,163 [1    ] Abp.Localization.LocalizationManager     - Initializing 3 localization sources.
DEBUG 2018-10-04 12:09:29,557 [1    ] Abp.Localization.LocalizationManager     - Initialized localization source: Abp
DEBUG 2018-10-04 12:09:30,158 [1    ] Abp.Localization.LocalizationManager     - Initialized localization source: AbpZero
DEBUG 2018-10-04 12:09:30,453 [1    ] Abp.Localization.LocalizationManager     - Initialized localization source: IContestPro
INFO  2018-10-04 12:09:30,764 [1    ] IContestPro.Migrator.Log                 - Host database: server=localhost;database=IContestProDb;trusted_connection=True
INFO  2018-10-04 12:09:30,764 [1    ] IContestPro.Migrator.Log                 - Continue to migration for this host database and all tenants..? (Y/N): 
DEBUG 2018-10-04 12:25:30,235 [1    ] Abp.Modules.AbpModuleManager             - Loading Abp modules...
DEBUG 2018-10-04 12:25:30,291 [1    ] Abp.Modules.AbpModuleManager             - Found 9 ABP modules in total.
DEBUG 2018-10-04 12:25:30,662 [1    ] Abp.Modules.AbpModuleManager             - Loaded module: IContestPro.Migrator.IContestProMigratorModule, IContestPro.Migrator, Version=1.0.0.0, Culture=neutral, PublicKeyToken=null
DEBUG 2018-10-04 12:25:30,666 [1    ] Abp.Modules.AbpModuleManager             - Loaded module: IContestPro.EntityFrameworkCore.IContestProEntityFrameworkModule, IContestPro.EntityFrameworkCore, Version=1.0.0.0, Culture=neutral, PublicKeyToken=null
DEBUG 2018-10-04 12:25:30,666 [1    ] Abp.Modules.AbpModuleManager             - Loaded module: IContestPro.IContestProCoreModule, IContestPro.Core, Version=1.0.0.0, Culture=neutral, PublicKeyToken=null
DEBUG 2018-10-04 12:25:30,667 [1    ] Abp.Modules.AbpModuleManager             - Loaded module: Abp.Zero.AbpZeroCoreModule, Abp.ZeroCore, Version=3.8.3.0, Culture=neutral, PublicKeyToken=null
DEBUG 2018-10-04 12:25:30,667 [1    ] Abp.Modules.AbpModuleManager             - Loaded module: Abp.Zero.AbpZeroCommonModule, Abp.Zero.Common, Version=3.8.3.0, Culture=neutral, PublicKeyToken=null
DEBUG 2018-10-04 12:25:30,668 [1    ] Abp.Modules.AbpModuleManager             - Loaded module: Abp.AbpKernelModule, Abp, Version=3.8.3.0, Culture=neutral, PublicKeyToken=null
DEBUG 2018-10-04 12:25:30,668 [1    ] Abp.Modules.AbpModuleManager             - Loaded module: Abp.Zero.EntityFrameworkCore.AbpZeroCoreEntityFrameworkCoreModule, Abp.ZeroCore.EntityFrameworkCore, Version=3.8.3.0, Culture=neutral, PublicKeyToken=null
DEBUG 2018-10-04 12:25:30,669 [1    ] Abp.Modules.AbpModuleManager             - Loaded module: Abp.EntityFrameworkCore.AbpEntityFrameworkCoreModule, Abp.EntityFrameworkCore, Version=3.8.3.0, Culture=neutral, PublicKeyToken=null
DEBUG 2018-10-04 12:25:30,669 [1    ] Abp.Modules.AbpModuleManager             - Loaded module: Abp.EntityFramework.AbpEntityFrameworkCommonModule, Abp.EntityFramework.Common, Version=3.8.3.0, Culture=neutral, PublicKeyToken=null
DEBUG 2018-10-04 12:25:30,677 [1    ] Abp.Modules.AbpModuleManager             - 9 modules loaded.
DEBUG 2018-10-04 12:25:31,212 [1    ] ameworkCore.AbpEntityFrameworkCoreModule - Registering DbContext: IContestPro.EntityFrameworkCore.IContestProDbContext, IContestPro.EntityFrameworkCore, Version=1.0.0.0, Culture=neutral, PublicKeyToken=null
DEBUG 2018-10-04 12:25:31,972 [1    ] Abp.Localization.LocalizationManager     - Initializing 3 localization sources.
DEBUG 2018-10-04 12:25:32,540 [1    ] Abp.Localization.LocalizationManager     - Initialized localization source: Abp
DEBUG 2018-10-04 12:25:33,205 [1    ] Abp.Localization.LocalizationManager     - Initialized localization source: AbpZero
DEBUG 2018-10-04 12:25:33,542 [1    ] Abp.Localization.LocalizationManager     - Initialized localization source: IContestPro
INFO  2018-10-04 12:25:33,866 [1    ] IContestPro.Migrator.Log                 - Host database: server=localhost;database=IContestProDb;trusted_connection=True
INFO  2018-10-04 12:25:33,866 [1    ] IContestPro.Migrator.Log                 - Continue to migration for this host database and all tenants..? (Y/N): 
INFO  2018-10-04 12:25:45,497 [1    ] IContestPro.Migrator.Log                 - HOST database migration started...
INFO  2018-10-04 12:25:49,492 [1    ] IContestPro.Migrator.Log                 - An error occured during migration of host database:
INFO  2018-10-04 12:25:49,510 [1    ] IContestPro.Migrator.Log                 - System.Data.SqlClient.SqlException (0x80131904): Cannot authenticate using Kerberos. Ensure Kerberos has been initialized on the client with 'kinit' and a Service Principal Name has been registered for the SQL Server to allow Kerberos authentication.
ErrorCode=InternalError, Exception=Interop+NetSecurityNative+GssApiException: GSSAPI operation failed with error -  An unsupported mechanism was requested (unknown mech-code 0 for mech unknown).
   at System.Net.Security.NegotiateStreamPal.GssInitSecurityContext(SafeGssContextHandle& context, SafeGssCredHandle credential, Boolean isNtlm, SafeGssNameHandle targetName, GssFlags inFlags, Byte[] buffer, Byte[]& outputBuffer, UInt32& outFlags, Int32& isNtlmUsed)
   at System.Net.Security.NegotiateStreamPal.EstablishSecurityContext(SafeFreeNegoCredentials credential, SafeDeleteContext& context, String targetName, ContextFlagsPal inFlags, SecurityBuffer inputBuffer, SecurityBuffer outputBuffer, ContextFlagsPal& outFlags)
   at System.Data.SqlClient.SNI.SNIProxy.GenSspiClientContext(SspiClientContextStatus sspiClientContextStatus, Byte[] receivedBuff, Byte[]& sendBuff, Byte[] serverName)
   at System.Data.SqlClient.SNI.TdsParserStateObjectManaged.GenerateSspiClientContext(Byte[] receivedBuff, UInt32 receivedLength, Byte[]& sendBuff, UInt32& sendLength, Byte[] _sniSpnBuffer)
   at System.Data.SqlClient.TdsParser.SNISSPIData(Byte[] receivedBuff, UInt32 receivedLength, Byte[]& sendBuff, UInt32& sendLength)
   at System.Data.SqlClient.SqlInternalConnectionTds..ctor(DbConnectionPoolIdentity identity, SqlConnectionString connectionOptions, SqlCredential credential, Object providerInfo, String newPassword, SecureString newSecurePassword, Boolean redirectedUserInstance, SqlConnectionString userConnectionOptions, SessionData reconnectSessionData, Boolean applyTransientFaultHandling)
   at System.Data.SqlClient.SqlConnectionFactory.CreateConnection(DbConnectionOptions options, DbConnectionPoolKey poolKey, Object poolGroupProviderInfo, DbConnectionPool pool, DbConnection owningConnection, DbConnectionOptions userOptions)
   at System.Data.ProviderBase.DbConnectionFactory.CreatePooledConnection(DbConnectionPool pool, DbConnection owningObject, DbConnectionOptions options, DbConnectionPoolKey poolKey, DbConnectionOptions userOptions)
   at System.Data.ProviderBase.DbConnectionPool.CreateObject(DbConnection owningObject, DbConnectionOptions userOptions, DbConnectionInternal oldConnection)
   at System.Data.ProviderBase.DbConnectionPool.UserCreateRequest(DbConnection owningObject, DbConnectionOptions userOptions, DbConnectionInternal oldConnection)
   at System.Data.ProviderBase.DbConnectionPool.TryGetConnection(DbConnection owningObject, UInt32 waitForMultipleObjectsTimeout, Boolean allowCreate, Boolean onlyOneCheckConnection, DbConnectionOptions userOptions, DbConnectionInternal& connection)
   at System.Data.ProviderBase.DbConnectionPool.TryGetConnection(DbConnection owningObject, TaskCompletionSource`1 retry, DbConnectionOptions userOptions, DbConnectionInternal& connection)
   at System.Data.ProviderBase.DbConnectionFactory.TryGetConnection(DbConnection owningConnection, TaskCompletionSource`1 retry, DbConnectionOptions userOptions, DbConnectionInternal oldConnection, DbConnectionInternal& connection)
   at System.Data.ProviderBase.DbConnectionInternal.TryOpenConnectionInternal(DbConnection outerConnection, DbConnectionFactory connectionFactory, TaskCompletionSource`1 retry, DbConnectionOptions userOptions)
   at System.Data.SqlClient.SqlConnection.TryOpen(TaskCompletionSource`1 retry)
   at System.Data.SqlClient.SqlConnection.Open()
   at Microsoft.EntityFrameworkCore.Storage.RelationalConnection.OpenDbConnection(Boolean errorsExpected)
   at Microsoft.EntityFrameworkCore.Storage.RelationalConnection.Open(Boolean errorsExpected)
   at Microsoft.EntityFrameworkCore.SqlServer.Storage.Internal.SqlServerDatabaseCreator.<>c__DisplayClass18_0.<Exists>b__0(DateTime giveUp)
   at Microsoft.EntityFrameworkCore.ExecutionStrategyExtensions.<>c__DisplayClass12_0`2.<Execute>b__0(DbContext c, TState s)
   at Microsoft.EntityFrameworkCore.SqlServer.Storage.Internal.SqlServerExecutionStrategy.Execute[TState,TResult](TState state, Func`3 operation, Func`3 verifySucceeded)
   at Microsoft.EntityFrameworkCore.ExecutionStrategyExtensions.Execute[TState,TResult](IExecutionStrategy strategy, Func`2 operation, Func`2 verifySucceeded, TState state)
   at Microsoft.EntityFrameworkCore.SqlServer.Storage.Internal.SqlServerDatabaseCreator.Exists(Boolean retryOnNotExists)
   at Microsoft.EntityFrameworkCore.Migrations.HistoryRepository.Exists()
   at Microsoft.EntityFrameworkCore.Migrations.Internal.Migrator.Migrate(String targetMigration)
   at Abp.Zero.EntityFrameworkCore.AbpZeroDbMigrator`1.CreateOrMigrate(AbpTenantBase tenant, Action`1 seedAction) in D:\Github\aspnetboilerplate\src\Abp.ZeroCore.EntityFrameworkCore\Zero\EntityFrameworkCore\AbpZeroDbMigrator.cs:line 74
   at IContestPro.Migrator.MultiTenantMigrateExecuter.Run(Boolean skipConnVerification) in /Users/user/AspnetProjects/IContestPro/src/IContestPro.Migrator/MultiTenantMigrateExecuter.cs:line 62
ClientConnectionId:9b9ac638-19fd-4023-870c-8a69b04d21db
INFO  2018-10-04 12:25:49,511 [1    ] IContestPro.Migrator.Log                 - Canceled migrations.
DEBUG 2018-10-04 12:26:19,591 [1    ] Abp.Modules.AbpModuleManager             - Shutting down has been started
DEBUG 2018-10-04 12:26:19,593 [1    ] Abp.Modules.AbpModuleManager             - Shutting down completed.
<<<<<<< HEAD
DEBUG 2018-11-01 08:08:05,894 [1    ] Abp.Modules.AbpModuleManager             - Loading Abp modules...
DEBUG 2018-11-01 08:08:06,442 [1    ] Abp.Modules.AbpModuleManager             - Found 9 ABP modules in total.
DEBUG 2018-11-01 08:08:07,175 [1    ] Abp.Modules.AbpModuleManager             - Loaded module: IContestPro.Migrator.IContestProMigratorModule, IContestPro.Migrator, Version=1.0.0.0, Culture=neutral, PublicKeyToken=null
DEBUG 2018-11-01 08:08:07,178 [1    ] Abp.Modules.AbpModuleManager             - Loaded module: IContestPro.EntityFrameworkCore.IContestProEntityFrameworkModule, IContestPro.EntityFrameworkCore, Version=1.0.0.0, Culture=neutral, PublicKeyToken=null
DEBUG 2018-11-01 08:08:07,178 [1    ] Abp.Modules.AbpModuleManager             - Loaded module: IContestPro.IContestProCoreModule, IContestPro.Core, Version=1.0.0.0, Culture=neutral, PublicKeyToken=null
DEBUG 2018-11-01 08:08:07,178 [1    ] Abp.Modules.AbpModuleManager             - Loaded module: Abp.Zero.AbpZeroCoreModule, Abp.ZeroCore, Version=3.8.3.0, Culture=neutral, PublicKeyToken=null
DEBUG 2018-11-01 08:08:07,179 [1    ] Abp.Modules.AbpModuleManager             - Loaded module: Abp.Zero.AbpZeroCommonModule, Abp.Zero.Common, Version=3.8.3.0, Culture=neutral, PublicKeyToken=null
DEBUG 2018-11-01 08:08:07,179 [1    ] Abp.Modules.AbpModuleManager             - Loaded module: Abp.AbpKernelModule, Abp, Version=3.8.3.0, Culture=neutral, PublicKeyToken=null
DEBUG 2018-11-01 08:08:07,180 [1    ] Abp.Modules.AbpModuleManager             - Loaded module: Abp.Zero.EntityFrameworkCore.AbpZeroCoreEntityFrameworkCoreModule, Abp.ZeroCore.EntityFrameworkCore, Version=3.8.3.0, Culture=neutral, PublicKeyToken=null
DEBUG 2018-11-01 08:08:07,180 [1    ] Abp.Modules.AbpModuleManager             - Loaded module: Abp.EntityFrameworkCore.AbpEntityFrameworkCoreModule, Abp.EntityFrameworkCore, Version=3.8.3.0, Culture=neutral, PublicKeyToken=null
DEBUG 2018-11-01 08:08:07,181 [1    ] Abp.Modules.AbpModuleManager             - Loaded module: Abp.EntityFramework.AbpEntityFrameworkCommonModule, Abp.EntityFramework.Common, Version=3.8.3.0, Culture=neutral, PublicKeyToken=null
DEBUG 2018-11-01 08:08:07,185 [1    ] Abp.Modules.AbpModuleManager             - 9 modules loaded.
DEBUG 2018-11-01 08:08:07,780 [1    ] ameworkCore.AbpEntityFrameworkCoreModule - Registering DbContext: IContestPro.EntityFrameworkCore.IContestProDbContext, IContestPro.EntityFrameworkCore, Version=1.0.0.0, Culture=neutral, PublicKeyToken=null
DEBUG 2018-11-01 08:08:08,996 [1    ] Abp.Localization.LocalizationManager     - Initializing 3 localization sources.
DEBUG 2018-11-01 08:08:09,274 [1    ] Abp.Localization.LocalizationManager     - Initialized localization source: Abp
DEBUG 2018-11-01 08:08:09,506 [1    ] Abp.Localization.LocalizationManager     - Initialized localization source: AbpZero
DEBUG 2018-11-01 08:08:09,625 [1    ] Abp.Localization.LocalizationManager     - Initialized localization source: IContestPro
INFO  2018-11-01 08:08:10,644 [1    ] IContestPro.Migrator.Log                 - Host database: server=localhost;database=IContestProDb;trusted_connection=True
INFO  2018-11-01 08:08:10,644 [1    ] IContestPro.Migrator.Log                 - Continue to migration for this host database and all tenants..? (Y/N): 
=======
DEBUG 2018-10-30 15:03:22,620 [1    ] Abp.Modules.AbpModuleManager             - Loading Abp modules...
DEBUG 2018-10-30 15:03:22,856 [1    ] Abp.Modules.AbpModuleManager             - Found 9 ABP modules in total.
DEBUG 2018-10-30 15:03:23,638 [1    ] Abp.Modules.AbpModuleManager             - Loaded module: IContestPro.Migrator.IContestProMigratorModule, IContestPro.Migrator, Version=1.0.0.0, Culture=neutral, PublicKeyToken=null
DEBUG 2018-10-30 15:03:23,643 [1    ] Abp.Modules.AbpModuleManager             - Loaded module: IContestPro.EntityFrameworkCore.IContestProEntityFrameworkModule, IContestPro.EntityFrameworkCore, Version=1.0.0.0, Culture=neutral, PublicKeyToken=null
DEBUG 2018-10-30 15:03:23,643 [1    ] Abp.Modules.AbpModuleManager             - Loaded module: IContestPro.IContestProCoreModule, IContestPro.Core, Version=1.0.0.0, Culture=neutral, PublicKeyToken=null
DEBUG 2018-10-30 15:03:23,644 [1    ] Abp.Modules.AbpModuleManager             - Loaded module: Abp.Zero.AbpZeroCoreModule, Abp.ZeroCore, Version=3.8.3.0, Culture=neutral, PublicKeyToken=null
DEBUG 2018-10-30 15:03:23,644 [1    ] Abp.Modules.AbpModuleManager             - Loaded module: Abp.Zero.AbpZeroCommonModule, Abp.Zero.Common, Version=3.8.3.0, Culture=neutral, PublicKeyToken=null
DEBUG 2018-10-30 15:03:23,644 [1    ] Abp.Modules.AbpModuleManager             - Loaded module: Abp.AbpKernelModule, Abp, Version=3.8.3.0, Culture=neutral, PublicKeyToken=null
DEBUG 2018-10-30 15:03:23,645 [1    ] Abp.Modules.AbpModuleManager             - Loaded module: Abp.Zero.EntityFrameworkCore.AbpZeroCoreEntityFrameworkCoreModule, Abp.ZeroCore.EntityFrameworkCore, Version=3.8.3.0, Culture=neutral, PublicKeyToken=null
DEBUG 2018-10-30 15:03:23,646 [1    ] Abp.Modules.AbpModuleManager             - Loaded module: Abp.EntityFrameworkCore.AbpEntityFrameworkCoreModule, Abp.EntityFrameworkCore, Version=3.8.3.0, Culture=neutral, PublicKeyToken=null
DEBUG 2018-10-30 15:03:23,646 [1    ] Abp.Modules.AbpModuleManager             - Loaded module: Abp.EntityFramework.AbpEntityFrameworkCommonModule, Abp.EntityFramework.Common, Version=3.8.3.0, Culture=neutral, PublicKeyToken=null
DEBUG 2018-10-30 15:03:23,651 [1    ] Abp.Modules.AbpModuleManager             - 9 modules loaded.
DEBUG 2018-10-30 15:03:24,484 [1    ] ameworkCore.AbpEntityFrameworkCoreModule - Registering DbContext: IContestPro.EntityFrameworkCore.IContestProDbContext, IContestPro.EntityFrameworkCore, Version=1.0.0.0, Culture=neutral, PublicKeyToken=null
DEBUG 2018-10-30 15:03:26,190 [1    ] Abp.Localization.LocalizationManager     - Initializing 3 localization sources.
DEBUG 2018-10-30 15:03:26,666 [1    ] Abp.Localization.LocalizationManager     - Initialized localization source: Abp
DEBUG 2018-10-30 15:03:27,339 [1    ] Abp.Localization.LocalizationManager     - Initialized localization source: AbpZero
DEBUG 2018-10-30 15:03:27,614 [1    ] Abp.Localization.LocalizationManager     - Initialized localization source: IContestPro
INFO  2018-10-30 15:03:28,035 [1    ] IContestPro.Migrator.Log                 - Host database: server=localhost;database=IContestProDb;trusted_connection=True
INFO  2018-10-30 15:03:28,035 [1    ] IContestPro.Migrator.Log                 - Continue to migration for this host database and all tenants..? (Y/N): 
>>>>>>> c0aec7be46f4279046a7d075292b6d7a7c20924f
