﻿{
  "id": 2,
  "instanceName": "Self hosted videos",
  "videos": [
    {
      "videoType": "HTML5",
      "title": "AD 5 sec + Pieces After Effects project",
      "description": "Video by InlifeThrill design.",
      "info": "Video info goes here.<br>This text can be HTML formatted.<br>You can disable this info window in player options. <br><br>Lorem ipsum dolor sit amet, eu pri dolores theophrastus. Posidonium vituperatoribus cu mel, cum feugiat nostrum sapientem ne. Vis ea summo persius, unum velit erant in eos, pri ut suas iriure euripidis. Ad augue expetendis sea. Ne usu saperet appetere honestatis, ne qui nulla debitis sententiae.",
      "thumbImg": "http:\/\/creativeinteractivemedia.com\/player\/Elite_video_player\/wp-content\/uploads\/2016\/11\/pic1.jpg",
      "mp4": "http:\/\/creativeinteractivemedia.com\/player\/videos\/Pieces.mp4",
      "enable_mp4_download": "yes",
      "prerollAD": "yes",
      "prerollGotoLink": "http:\/\/codecanyon.net\/",
      "preroll_mp4": "http:\/\/creativeinteractivemedia.com\/player\/videos\/Broadcast_Long_Shadow_Package.mp4",
      "prerollSkipTimer": "5",
      "midrollAD": "yes",
      "midrollAD_displayTime": "00:10",
      "midrollGotoLink": "http:\/\/creativeinteractivemedia.com\/player\/videos\/Broadcast_Long_Shadow_Package.mp4",
      "midroll_mp4": "http:\/\/creativeinteractivemedia.com\/player\/videos\/Logo_Explode.mp4",
      "midrollSkipTimer": "5",
      "postrollAD": "yes",
      "postrollGotoLink": "http:\/\/codecanyon.net\/",
      "postroll_mp4": "http:\/\/creativeinteractivemedia.com\/player\/videos\/Logo_Light.mp4",
      "postrollSkipTimer": "5",
      "popupAdShow": "yes",
      "popupImg": "http:\/\/creativeinteractivemedia.com\/player\/Elite_video_player\/wp-content\/uploads\/2016\/11\/popup.jpg",
      "popupAdStartTime": "00:03",
      "popupAdEndTime": "00:07",
      "popupAdGoToLink": "http:\/\/codecanyon.net\/"
    },
    {
      "videoType": "HTML5",
      "title": "AD 10 sec + Streaks Logo After Effects project",
      "description": "Video by InlifeThrill design.",
      "info": "Video info goes here.<br>This text can be HTML formatted.<br>You can disable this info window in player options. ",
      "thumbImg": "http:\/\/creativeinteractivemedia.com\/player\/Elite_video_player\/wp-content\/uploads\/2016\/11\/pic2.jpg",
      "mp4": "http:\/\/creativeinteractivemedia.com\/player\/videos\/Streaks_Logo.mp4",
      "enable_mp4_download": "yes",
      "prerollAD": "yes",
      "prerollGotoLink": "http:\/\/codecanyon.net\/",
      "preroll_mp4": "http:\/\/creativeinteractivemedia.com\/player\/videos\/i_Create.mp4",
      "prerollSkipTimer": "10",
      "midrollAD": "no",
      "midrollAD_displayTime": "midrollAD_displayTime",
      "midrollGotoLink": "midrollGotoLink",
      "midroll_mp4": "midroll_mp4",
      "midrollSkipTimer": "midrollSkipTimer",
      "postrollAD": "no",
      "postrollGotoLink": "postrollGotoLink",
      "postroll_mp4": "postroll_mp4",
      "postrollSkipTimer": "postrollSkipTimer",
      "popupAdShow": "no",
      "popupImg": "popupImg",
      "popupAdStartTime": "popupAdStartTime",
      "popupAdEndTime": "popupAdEndTime",
      "popupAdGoToLink": "popupAdGoToLink"
    },
    {
      "videoType": "HTML5",
      "title": "AD 15 sec + Overspread After Effects Project",
      "description": "Video by InlifeThrill design.",
      "info": "Video info goes here.<br>This text can be HTML formatted. suas iriure euripidis.",
      "thumbImg": "http:\/\/creativeinteractivemedia.com\/player\/Elite_video_player\/wp-content\/uploads\/2016\/11\/pic5.jpg",
      "mp4": "http:\/\/creativeinteractivemedia.com\/player\/videos\/OverSpread.mp4",
      "enable_mp4_download": "yes",
      "prerollAD": "yes",
      "prerollGotoLink": "http:\/\/codecanyon.net\/",
      "preroll_mp4": "http:\/\/creativeinteractivemedia.com\/player\/videos\/i_Create.mp4",
      "prerollSkipTimer": "15",
      "midrollAD": "no",
      "midrollAD_displayTime": "midrollAD_displayTime",
      "midrollGotoLink": "midrollGotoLink",
      "midroll_mp4": "midroll_mp4",
      "midrollSkipTimer": "midrollSkipTimer",
      "postrollAD": "no",
      "postrollGotoLink": "postrollGotoLink",
      "postroll_mp4": "postroll_mp4",
      "postrollSkipTimer": "postrollSkipTimer",
      "popupAdShow": "no",
      "popupImg": "popupImg",
      "popupAdStartTime": "popupAdStartTime",
      "popupAdEndTime": "popupAdEndTime",
      "popupAdGoToLink": "popupAdGoToLink"
    },
    {
      "videoType": "HTML5",
      "title": "Photo Dune After Effects Project",
      "description": "Video by InlifeThrill design.",
      "info": "Video info goes here.<br>This text can be HTML formatted.<br>You can disable this info window in player options. <br><br>Lorem ipsum dolor sit amet, eu pri dolores theophrastus. Posidonium vituperatoribus cu mel, cum feugiat nostrum sapientem ne. Vis ea summo persius, unum velit erant in eos, pri ut suas iriure euripidis. Ad augue expetendis sea. Ne usu saperet appetere honestatis, ne qui nulla debitis sententiae.",
      "thumbImg": "http:\/\/creativeinteractivemedia.com\/player\/Elite_video_player\/wp-content\/uploads\/2016\/11\/pic6.jpg",
      "mp4": "http:\/\/creativeinteractivemedia.com\/player\/videos\/Photo_Dune.mp4",
      "enable_mp4_download": "yes",
      "prerollAD": "no",
      "prerollGotoLink": "prerollGotoLink",
      "preroll_mp4": "preroll_mp4",
      "prerollSkipTimer": "prerollSkipTimer",
      "midrollAD": "no",
      "midrollAD_displayTime": "midrollAD_displayTime",
      "midrollGotoLink": "midrollGotoLink",
      "midroll_mp4": "midroll_mp4",
      "midrollSkipTimer": "midrollSkipTimer",
      "postrollAD": "no",
      "postrollGotoLink": "postrollGotoLink",
      "postroll_mp4": "postroll_mp4",
      "postrollSkipTimer": "postrollSkipTimer",
      "popupAdShow": "no",
      "popupImg": "popupImg",
      "popupAdStartTime": "popupAdStartTime",
      "popupAdEndTime": "popupAdEndTime",
      "popupAdGoToLink": "popupAdGoToLink"
    },
    {
      "videoType": "HTML5",
      "title": "Space Odyssey After Effects Project",
      "description": "Video by InlifeThrill design.",
      "info": "Video info goes here.<br>This text can be HTML formatted.<br>You can disable this info window in player options. <br><br>Lorem ipsum dolor sit amet, eu pri dolores theophrastus. Posidonium vituperatoribus cu mel, cum feugiat nostrum sapientem ne. Vis ea summo persius, unum velit erant in eos, pri ut suas iriure euripidis. Ad augue expetendis sea. Ne usu saperet appetere honestatis, ne qui nulla debitis sententiae.",
      "thumbImg": "http:\/\/creativeinteractivemedia.com\/player\/Elite_video_player\/wp-content\/uploads\/2016\/11\/pic7.jpg",
      "mp4": "http:\/\/creativeinteractivemedia.com\/player\/videos\/Space_Odyssey.mp4",
      "enable_mp4_download": "yes",
      "prerollAD": "no",
      "prerollGotoLink": "prerollGotoLink",
      "preroll_mp4": "preroll_mp4",
      "prerollSkipTimer": "prerollSkipTimer",
      "midrollAD": "no",
      "midrollAD_displayTime": "midrollAD_displayTime",
      "midrollGotoLink": "midrollGotoLink",
      "midroll_mp4": "midroll_mp4",
      "midrollSkipTimer": "midrollSkipTimer",
      "postrollAD": "no",
      "postrollGotoLink": "postrollGotoLink",
      "postroll_mp4": "postroll_mp4",
      "postrollSkipTimer": "postrollSkipTimer",
      "popupAdShow": "no",
      "popupImg": "popupImg",
      "popupAdStartTime": "popupAdStartTime",
      "popupAdEndTime": "popupAdEndTime",
      "popupAdGoToLink": "popupAdGoToLink"
    },
    {
      "videoType": "HTML5",
      "title": "Still Run After Effects Project",
      "description": "Video by InlifeThrill design.",
      "info": "Video info goes here.<br>This text can be HTML formatted.<br>You can disable this info window in player options. <br><br>Lorem ipsum dolor sit amet, eu pri dolores theophrastus. Posidonium vituperatoribus cu mel, cum feugiat nostrum sapientem ne. Vis ea summo persius, unum velit erant in eos, pri ut suas iriure euripidis. Ad augue expetendis sea. Ne usu saperet appetere honestatis, ne qui nulla debitis sententiae.",
      "thumbImg": "http:\/\/creativeinteractivemedia.com\/player\/Elite_video_player\/wp-content\/uploads\/2016\/11\/pic8.jpg",
      "mp4": "http:\/\/creativeinteractivemedia.com\/player\/videos\/Still_Run.mp4",
      "enable_mp4_download": "yes",
      "prerollAD": "no",
      "prerollGotoLink": "prerollGotoLink",
      "preroll_mp4": "preroll_mp4",
      "prerollSkipTimer": "prerollSkipTimer",
      "midrollAD": "no",
      "midrollAD_displayTime": "midrollAD_displayTime",
      "midrollGotoLink": "midrollGotoLink",
      "midroll_mp4": "midroll_mp4",
      "midrollSkipTimer": "midrollSkipTimer",
      "postrollAD": "no",
      "postrollGotoLink": "postrollGotoLink",
      "postroll_mp4": "postroll_mp4",
      "postrollSkipTimer": "postrollSkipTimer",
      "popupAdShow": "no",
      "popupImg": "popupImg",
      "popupAdStartTime": "popupAdStartTime",
      "popupAdEndTime": "popupAdEndTime",
      "popupAdGoToLink": "popupAdGoToLink"
    },
    {
      "videoType": "HTML5",
      "title": "AD 5 sec + Top Models After Effects Project",
      "description": "Video by InlifeThrill design.",
      "info": "Video info goes here.<br>This text can be HTML formatted.<br>You can disable this info window in player options. <br><br>Lorem ipsum dolor sit amet, eu pri dolores theophrastus. Posidonium vituperatoribus cu mel, cum feugiat nostrum sapientem ne. Vis ea summo persius, unum velit erant in eos, pri ut suas iriure euripidis. Ad augue expetendis sea. Ne usu saperet appetere honestatis, ne qui nulla debitis sententiae.",
      "thumbImg": "http:\/\/creativeinteractivemedia.com\/player\/Elite_video_player\/wp-content\/uploads\/2016\/11\/pic9.jpg",
      "mp4": "http:\/\/creativeinteractivemedia.com\/player\/videos\/Top_Models.mp4",
      "enable_mp4_download": "yes",
      "prerollAD": "yes",
      "prerollGotoLink": "http:\/\/codecanyon.net\/",
      "preroll_mp4": "http:\/\/creativeinteractivemedia.com\/player\/videos\/i_Create.mp4",
      "prerollSkipTimer": "5",
      "midrollAD": "no",
      "midrollAD_displayTime": "midrollAD_displayTime",
      "midrollGotoLink": "midrollGotoLink",
      "midroll_mp4": "midroll_mp4",
      "midrollSkipTimer": "midrollSkipTimer",
      "postrollAD": "no",
      "postrollGotoLink": "postrollGotoLink",
      "postroll_mp4": "postroll_mp4",
      "postrollSkipTimer": "postrollSkipTimer",
      "popupAdShow": "no",
      "popupImg": "popupImg",
      "popupAdStartTime": "popupAdStartTime",
      "popupAdEndTime": "popupAdEndTime",
      "popupAdGoToLink": "popupAdGoToLink"
    },
    {
      "videoType": "HTML5",
      "title": "AD 5 sec + Pour Elle After Effects Project",
      "description": "Video by InlifeThrill design.",
      "info": "Video info goes here.<br>This text can be HTML formatted.<br>You can disable this info window in player options. <br><br>Lorem ipsum dolor sit amet, eu pri dolores theophrastus. Posidonium vituperatoribus cu mel, cum feugiat nostrum sapientem ne. Vis ea summo persius, unum velit erant in eos, pri ut suas iriure euripidis. Ad augue expetendis sea. Ne usu saperet appetere honestatis, ne qui nulla debitis sententiae.",
      "thumbImg": "http:\/\/creativeinteractivemedia.com\/player\/Elite_video_player\/wp-content\/uploads\/2016\/11\/pic10.jpg",
      "mp4": "http:\/\/creativeinteractivemedia.com\/player\/videos\/Pour_elle.mp4",
      "enable_mp4_download": "yes",
      "prerollAD": "yes",
      "prerollGotoLink": "http:\/\/codecanyon.net\/",
      "preroll_mp4": "http:\/\/creativeinteractivemedia.com\/player\/videos\/Broadcast_Long_Shadow_Package.mp4",
      "prerollSkipTimer": "5",
      "midrollAD": "no",
      "midrollAD_displayTime": "midrollAD_displayTime",
      "midrollGotoLink": "midrollGotoLink",
      "midroll_mp4": "midroll_mp4",
      "midrollSkipTimer": "midrollSkipTimer",
      "postrollAD": "no",
      "postrollGotoLink": "postrollGotoLink",
      "postroll_mp4": "postroll_mp4",
      "postrollSkipTimer": "postrollSkipTimer",
      "popupAdShow": "no",
      "popupImg": "popupImg",
      "popupAdStartTime": "popupAdStartTime",
      "popupAdEndTime": "popupAdEndTime",
      "popupAdGoToLink": "popupAdGoToLink"
    },
    {
      "videoType": "HTML5",
      "title": "Rapture After Effects Project",
      "description": "Video by InlifeThrill design.",
      "info": "Video info goes here.<br>This text can be HTML formatted.<br>You can disable this info window in player options. <br><br>Lorem ipsum dolor sit amet, eu pri dolores theophrastus. Posidonium vituperatoribus cu mel, cum feugiat nostrum sapientem ne. Vis ea summo persius, unum velit erant in eos, pri ut suas iriure euripidis. Ad augue expetendis sea. Ne usu saperet appetere honestatis, ne qui nulla debitis sententiae.",
      "thumbImg": "http:\/\/creativeinteractivemedia.com\/player\/Elite_video_player\/wp-content\/uploads\/2016\/11\/pic11.jpg",
      "mp4": "http:\/\/creativeinteractivemedia.com\/player\/videos\/Rapture.mp4",
      "enable_mp4_download": "yes",
      "prerollAD": "no",
      "prerollGotoLink": "prerollGotoLink",
      "preroll_mp4": "preroll_mp4",
      "prerollSkipTimer": "prerollSkipTimer",
      "midrollAD": "no",
      "midrollAD_displayTime": "midrollAD_displayTime",
      "midrollGotoLink": "midrollGotoLink",
      "midroll_mp4": "midroll_mp4",
      "midrollSkipTimer": "midrollSkipTimer",
      "postrollAD": "no",
      "postrollGotoLink": "postrollGotoLink",
      "postroll_mp4": "postroll_mp4",
      "postrollSkipTimer": "postrollSkipTimer",
      "popupAdShow": "no",
      "popupImg": "popupImg",
      "popupAdStartTime": "popupAdStartTime",
      "popupAdEndTime": "popupAdEndTime",
      "popupAdGoToLink": "popupAdGoToLink"
    },
    {
      "videoType": "HTML5",
      "title": "Particle Impacts After Effects Project",
      "description": "Video by InlifeThrill design.",
      "info": "Video info goes here.<br>This text can be HTML formatted.<br>You can disable this info window in player options. <br><br>Lorem ipsum dolor sit amet, eu pri dolores theophrastus. Posidonium vituperatoribus cu mel, cum feugiat nostrum sapientem ne. Vis ea summo persius, unum velit erant in eos, pri ut suas iriure euripidis. Ad augue expetendis sea. Ne usu saperet appetere honestatis, ne qui nulla debitis sententiae.",
      "thumbImg": "http:\/\/creativeinteractivemedia.com\/player\/Elite_video_player\/wp-content\/uploads\/2016\/11\/pic12.jpg",
      "mp4": "http:\/\/creativeinteractivemedia.com\/player\/videos\/Particle_Impacts.mp4",
      "enable_mp4_download": "yes",
      "prerollAD": "no",
      "prerollGotoLink": "prerollGotoLink",
      "preroll_mp4": "preroll_mp4",
      "prerollSkipTimer": "prerollSkipTimer",
      "midrollAD": "no",
      "midrollAD_displayTime": "midrollAD_displayTime",
      "midrollGotoLink": "midrollGotoLink",
      "midroll_mp4": "midroll_mp4",
      "midrollSkipTimer": "midrollSkipTimer",
      "postrollAD": "no",
      "postrollGotoLink": "postrollGotoLink",
      "postroll_mp4": "postroll_mp4",
      "postrollSkipTimer": "postrollSkipTimer",
      "popupAdShow": "no",
      "popupImg": "popupImg",
      "popupAdStartTime": "popupAdStartTime",
      "popupAdEndTime": "popupAdEndTime",
      "popupAdGoToLink": "popupAdGoToLink"
    },
    {
      "videoType": "HTML5",
      "title": "Pieces After Effects project",
      "description": "Video by InlifeThrill design.",
      "info": "Video info goes here.<br>This text can be HTML formatted.<br>You can disable this info window in player options. <br><br>Lorem ipsum dolor sit amet, eu pri dolores theophrastus. Posidonium vituperatoribus cu mel, cum feugiat nostrum sapientem ne. Vis ea summo persius, unum velit erant in eos, pri ut suas iriure euripidis. Ad augue expetendis sea. Ne usu saperet appetere honestatis, ne qui nulla debitis sententiae.",
      "thumbImg": "http:\/\/creativeinteractivemedia.com\/player\/Elite_video_player\/wp-content\/uploads\/2016\/11\/pic1.jpg",
      "mp4": "http:\/\/creativeinteractivemedia.com\/player\/videos\/Pieces.mp4",
      "enable_mp4_download": "yes",
      "prerollAD": "no",
      "prerollGotoLink": "prerollGotoLink",
      "preroll_mp4": "preroll_mp4",
      "prerollSkipTimer": "prerollSkipTimer",
      "midrollAD": "no",
      "midrollAD_displayTime": "midrollAD_displayTime",
      "midrollGotoLink": "midrollGotoLink",
      "midroll_mp4": "midroll_mp4",
      "midrollSkipTimer": "midrollSkipTimer",
      "postrollAD": "no",
      "postrollGotoLink": "postrollGotoLink",
      "postroll_mp4": "postroll_mp4",
      "postrollSkipTimer": "postrollSkipTimer",
      "popupAdShow": "no",
      "popupImg": "popupImg",
      "popupAdStartTime": "popupAdStartTime",
      "popupAdEndTime": "popupAdEndTime",
      "popupAdGoToLink": "popupAdGoToLink"
    },
    {
      "videoType": "HTML5",
      "title": "AD 10 sec + Streaks Logo After Effects project",
      "description": "Video by InlifeThrill design.",
      "info": "Video info goes here.<br>This text can be HTML formatted.<br>You can disable this info window in player options. <br><br>Lorem ipsum dolor sit amet, eu pri dolores theophrastus. Posidonium vituperatoribus cu mel, cum feugiat nostrum sapientem ne. Vis ea summo persius, unum velit erant in eos, pri ut suas iriure euripidis. Ad augue expetendis sea. Ne usu saperet appetere honestatis, ne qui nulla debitis sententiae.",
      "thumbImg": "http:\/\/creativeinteractivemedia.com\/player\/Elite_video_player\/wp-content\/uploads\/2016\/11\/pic2.jpg",
      "mp4": "http:\/\/creativeinteractivemedia.com\/player\/videos\/Streaks_Logo.mp4",
      "enable_mp4_download": "yes",
      "prerollAD": "yes",
      "prerollGotoLink": "http:\/\/codecanyon.net\/",
      "preroll_mp4": "http:\/\/creativeinteractivemedia.com\/player\/videos\/i_Create.mp4",
      "prerollSkipTimer": "10",
      "midrollAD": "no",
      "midrollAD_displayTime": "midrollAD_displayTime",
      "midrollGotoLink": "midrollGotoLink",
      "midroll_mp4": "midroll_mp4",
      "midrollSkipTimer": "midrollSkipTimer",
      "postrollAD": "no",
      "postrollGotoLink": "postrollGotoLink",
      "postroll_mp4": "postroll_mp4",
      "postrollSkipTimer": "postrollSkipTimer",
      "popupAdShow": "no",
      "popupImg": "popupImg",
      "popupAdStartTime": "popupAdStartTime",
      "popupAdEndTime": "popupAdEndTime",
      "popupAdGoToLink": "popupAdGoToLink"
    },
    {
      "videoType": "HTML5",
      "title": "AD 10 sec + Overspread After Effects Project",
      "description": "Video by InlifeThrill design.",
      "info": "Video info goes here.<br>This text can be HTML formatted.<br>You can disable this info window in player options. <br><br>Lorem ipsum dolor sit amet, eu pri dolores theophrastus. Posidonium vituperatoribus cu mel, cum feugiat nostrum sapientem ne. Vis ea summo persius, unum velit erant in eos, pri ut suas iriure euripidis. Ad augue expetendis sea. Ne usu saperet appetere honestatis, ne qui nulla debitis sententiae.",
      "thumbImg": "http:\/\/creativeinteractivemedia.com\/player\/Elite_video_player\/wp-content\/uploads\/2016\/11\/pic5.jpg",
      "mp4": "http:\/\/creativeinteractivemedia.com\/player\/videos\/OverSpread.mp4",
      "enable_mp4_download": "yes",
      "prerollAD": "yes",
      "prerollGotoLink": "http:\/\/codecanyon.net\/",
      "preroll_mp4": "http:\/\/creativeinteractivemedia.com\/player\/videos\/Broadcast_Long_Shadow_Package.mp4",
      "prerollSkipTimer": "10",
      "midrollAD": "no",
      "midrollAD_displayTime": "midrollAD_displayTime",
      "midrollGotoLink": "midrollGotoLink",
      "midroll_mp4": "midroll_mp4",
      "midrollSkipTimer": "midrollSkipTimer",
      "postrollAD": "no",
      "postrollGotoLink": "postrollGotoLink",
      "postroll_mp4": "postroll_mp4",
      "postrollSkipTimer": "postrollSkipTimer",
      "popupAdShow": "no",
      "popupImg": "popupImg",
      "popupAdStartTime": "popupAdStartTime",
      "popupAdEndTime": "popupAdEndTime",
      "popupAdGoToLink": "popupAdGoToLink"
    },
    {
      "videoType": "HTML5",
      "title": "Photo Dune After Effects Project",
      "description": "Video by InlifeThrill design.",
      "info": "Video info goes here.<br>This text can be HTML formatted.<br>You can disable this info window in player options. <br><br>Lorem ipsum dolor sit amet, eu pri dolores theophrastus. Posidonium vituperatoribus cu mel, cum feugiat nostrum sapientem ne. Vis ea summo persius, unum velit erant in eos, pri ut suas iriure euripidis. Ad augue expetendis sea. Ne usu saperet appetere honestatis, ne qui nulla debitis sententiae.",
      "thumbImg": "http:\/\/creativeinteractivemedia.com\/player\/Elite_video_player\/wp-content\/uploads\/2016\/11\/pic6.jpg",
      "mp4": "http:\/\/creativeinteractivemedia.com\/player\/videos\/Photo_Dune.mp4",
      "enable_mp4_download": "yes",
      "prerollAD": "no",
      "prerollGotoLink": "prerollGotoLink",
      "preroll_mp4": "preroll_mp4",
      "prerollSkipTimer": "prerollSkipTimer",
      "midrollAD": "no",
      "midrollAD_displayTime": "midrollAD_displayTime",
      "midrollGotoLink": "midrollGotoLink",
      "midroll_mp4": "midroll_mp4",
      "midrollSkipTimer": "midrollSkipTimer",
      "postrollAD": "no",
      "postrollGotoLink": "postrollGotoLink",
      "postroll_mp4": "postroll_mp4",
      "postrollSkipTimer": "postrollSkipTimer",
      "popupAdShow": "no",
      "popupImg": "popupImg",
      "popupAdStartTime": "popupAdStartTime",
      "popupAdEndTime": "popupAdEndTime",
      "popupAdGoToLink": "popupAdGoToLink"
    },
    {
      "videoType": "HTML5",
      "title": "Space Odyssey After Effects Project",
      "description": "Video by InlifeThrill design.",
      "info": "Video info goes here.<br>This text can be HTML formatted.<br>You can disable this info window in player options. <br><br>Lorem ipsum dolor sit amet, eu pri dolores theophrastus. Posidonium vituperatoribus cu mel, cum feugiat nostrum sapientem ne. Vis ea summo persius, unum velit erant in eos, pri ut suas iriure euripidis. Ad augue expetendis sea. Ne usu saperet appetere honestatis, ne qui nulla debitis sententiae.",
      "thumbImg": "http:\/\/creativeinteractivemedia.com\/player\/Elite_video_player\/wp-content\/uploads\/2016\/11\/pic7.jpg",
      "mp4": "http:\/\/creativeinteractivemedia.com\/player\/videos\/Space_Odyssey.mp4",
      "enable_mp4_download": "yes",
      "prerollAD": "no",
      "prerollGotoLink": "prerollGotoLink",
      "preroll_mp4": "preroll_mp4",
      "prerollSkipTimer": "prerollSkipTimer",
      "midrollAD": "no",
      "midrollAD_displayTime": "midrollAD_displayTime",
      "midrollGotoLink": "midrollGotoLink",
      "midroll_mp4": "midroll_mp4",
      "midrollSkipTimer": "midrollSkipTimer",
      "postrollAD": "no",
      "postrollGotoLink": "postrollGotoLink",
      "postroll_mp4": "postroll_mp4",
      "postrollSkipTimer": "postrollSkipTimer",
      "popupAdShow": "no",
      "popupImg": "popupImg",
      "popupAdStartTime": "popupAdStartTime",
      "popupAdEndTime": "popupAdEndTime",
      "popupAdGoToLink": "popupAdGoToLink"
    },
    {
      "videoType": "HTML5",
      "title": "Still Run After Effects Project",
      "description": "Video by InlifeThrill design.",
      "info": "Video info goes here.<br>This text can be HTML formatted.<br>You can disable this info window in player options. <br><br>Lorem ipsum dolor sit amet, eu pri dolores theophrastus. Posidonium vituperatoribus cu mel, cum feugiat nostrum sapientem ne. Vis ea summo persius, unum velit erant in eos, pri ut suas iriure euripidis. Ad augue expetendis sea. Ne usu saperet appetere honestatis, ne qui nulla debitis sententiae.",
      "thumbImg": "http:\/\/creativeinteractivemedia.com\/player\/Elite_video_player\/wp-content\/uploads\/2016\/11\/pic8.jpg",
      "mp4": "http:\/\/creativeinteractivemedia.com\/player\/videos\/Still_Run.mp4",
      "enable_mp4_download": "yes",
      "prerollAD": "no",
      "prerollGotoLink": "prerollGotoLink",
      "preroll_mp4": "preroll_mp4",
      "prerollSkipTimer": "prerollSkipTimer",
      "midrollAD": "no",
      "midrollAD_displayTime": "midrollAD_displayTime",
      "midrollGotoLink": "midrollGotoLink",
      "midroll_mp4": "midroll_mp4",
      "midrollSkipTimer": "midrollSkipTimer",
      "postrollAD": "no",
      "postrollGotoLink": "postrollGotoLink",
      "postroll_mp4": "postroll_mp4",
      "postrollSkipTimer": "postrollSkipTimer",
      "popupAdShow": "no",
      "popupImg": "popupImg",
      "popupAdStartTime": "popupAdStartTime",
      "popupAdEndTime": "popupAdEndTime",
      "popupAdGoToLink": "popupAdGoToLink"
    },
    {
      "videoType": "HTML5",
      "title": "Top Models After Effects Project",
      "description": "Video by InlifeThrill design.",
      "info": "Video info goes here.<br>This text can be HTML formatted.<br>You can disable this info window in player options. <br><br>Lorem ipsum dolor sit amet, eu pri dolores theophrastus. Posidonium vituperatoribus cu mel, cum feugiat nostrum sapientem ne. Vis ea summo persius, unum velit erant in eos, pri ut suas iriure euripidis. Ad augue expetendis sea. Ne usu saperet appetere honestatis, ne qui nulla debitis sententiae.",
      "thumbImg": "http:\/\/creativeinteractivemedia.com\/player\/Elite_video_player\/wp-content\/uploads\/2016\/11\/pic9.jpg",
      "mp4": "http:\/\/creativeinteractivemedia.com\/player\/videos\/Top_Models.mp4",
      "enable_mp4_download": "yes",
      "prerollAD": "no",
      "prerollGotoLink": "prerollGotoLink",
      "preroll_mp4": "preroll_mp4",
      "prerollSkipTimer": "prerollSkipTimer",
      "midrollAD": "no",
      "midrollAD_displayTime": "midrollAD_displayTime",
      "midrollGotoLink": "midrollGotoLink",
      "midroll_mp4": "midroll_mp4",
      "midrollSkipTimer": "midrollSkipTimer",
      "postrollAD": "no",
      "postrollGotoLink": "postrollGotoLink",
      "postroll_mp4": "postroll_mp4",
      "postrollSkipTimer": "postrollSkipTimer",
      "popupAdShow": "no",
      "popupImg": "popupImg",
      "popupAdStartTime": "popupAdStartTime",
      "popupAdEndTime": "popupAdEndTime",
      "popupAdGoToLink": "popupAdGoToLink"
    },
    {
      "videoType": "HTML5",
      "title": "Pour Elle After Effects Project",
      "description": "Video by InlifeThrill design.",
      "info": "Video info goes here.<br>This text can be HTML formatted.<br>You can disable this info window in player options. <br><br>Lorem ipsum dolor sit amet, eu pri dolores theophrastus. Posidonium vituperatoribus cu mel, cum feugiat nostrum sapientem ne. Vis ea summo persius, unum velit erant in eos, pri ut suas iriure euripidis. Ad augue expetendis sea. Ne usu saperet appetere honestatis, ne qui nulla debitis sententiae.",
      "thumbImg": "http:\/\/creativeinteractivemedia.com\/player\/Elite_video_player\/wp-content\/uploads\/2016\/11\/pic10.jpg",
      "mp4": "http:\/\/creativeinteractivemedia.com\/player\/videos\/Pour_elle.mp4",
      "enable_mp4_download": "yes",
      "prerollAD": "no",
      "prerollGotoLink": "prerollGotoLink",
      "preroll_mp4": "preroll_mp4",
      "prerollSkipTimer": "prerollSkipTimer",
      "midrollAD": "no",
      "midrollAD_displayTime": "midrollAD_displayTime",
      "midrollGotoLink": "midrollGotoLink",
      "midroll_mp4": "midroll_mp4",
      "midrollSkipTimer": "midrollSkipTimer",
      "postrollAD": "no",
      "postrollGotoLink": "postrollGotoLink",
      "postroll_mp4": "postroll_mp4",
      "postrollSkipTimer": "postrollSkipTimer",
      "popupAdShow": "no",
      "popupImg": "popupImg",
      "popupAdStartTime": "popupAdStartTime",
      "popupAdEndTime": "popupAdEndTime",
      "popupAdGoToLink": "popupAdGoToLink"
    },
    {
      "videoType": "HTML5",
      "title": "AD 5 sec + Rapture After Effects Project",
      "description": "Video by InlifeThrill design.",
      "info": "Video info goes here.<br>This text can be HTML formatted.<br>You can disable this info window in player options. <br><br>Lorem ipsum dolor sit amet, eu pri dolores theophrastus. Posidonium vituperatoribus cu mel, cum feugiat nostrum sapientem ne. Vis ea summo persius, unum velit erant in eos, pri ut suas iriure euripidis. Ad augue expetendis sea. Ne usu saperet appetere honestatis, ne qui nulla debitis sententiae.",
      "thumbImg": "http:\/\/creativeinteractivemedia.com\/player\/Elite_video_player\/wp-content\/uploads\/2016\/11\/pic11.jpg",
      "mp4": "http:\/\/creativeinteractivemedia.com\/player\/videos\/Rapture.mp4",
      "enable_mp4_download": "yes",
      "prerollAD": "yes",
      "prerollGotoLink": "http:\/\/codecanyon.net\/",
      "preroll_mp4": "http:\/\/creativeinteractivemedia.com\/player\/videos\/Broadcast_Long_Shadow_Package.mp4",
      "prerollSkipTimer": "5",
      "midrollAD": "no",
      "midrollAD_displayTime": "midrollAD_displayTime",
      "midrollGotoLink": "midrollGotoLink",
      "midroll_mp4": "midroll_mp4",
      "midrollSkipTimer": "midrollSkipTimer",
      "postrollAD": "no",
      "postrollGotoLink": "postrollGotoLink",
      "postroll_mp4": "postroll_mp4",
      "postrollSkipTimer": "postrollSkipTimer",
      "popupAdShow": "no",
      "popupImg": "popupImg",
      "popupAdStartTime": "popupAdStartTime",
      "popupAdEndTime": "popupAdEndTime",
      "popupAdGoToLink": "popupAdGoToLink"
    },
    {
      "videoType": "HTML5",
      "title": "AD 5 sec + Particle Impacts After Effects Project",
      "description": "Video by InlifeThrill design.",
      "info": "Video info goes here.<br>This text can be HTML formatted.<br>You can disable this info window in player options. <br><br>Lorem ipsum dolor sit amet, eu pri dolores theophrastus. Posidonium vituperatoribus cu mel, cum feugiat nostrum sapientem ne. Vis ea summo persius, unum velit erant in eos, pri ut suas iriure euripidis. Ad augue expetendis sea. Ne usu saperet appetere honestatis, ne qui nulla debitis sententiae.",
      "thumbImg": "http:\/\/creativeinteractivemedia.com\/player\/Elite_video_player\/wp-content\/uploads\/2016\/11\/pic12.jpg",
      "mp4": "http:\/\/creativeinteractivemedia.com\/player\/videos\/Particle_Impacts.mp4",
      "enable_mp4_download": "yes",
      "prerollAD": "yes",
      "prerollGotoLink": "http:\/\/codecanyon.net\/",
      "preroll_mp4": "http:\/\/creativeinteractivemedia.com\/player\/videos\/i_Create.mp4",
      "prerollSkipTimer": "5",
      "midrollAD": "no",
      "midrollAD_displayTime": "midrollAD_displayTime",
      "midrollGotoLink": "midrollGotoLink",
      "midroll_mp4": "midroll_mp4",
      "midrollSkipTimer": "midrollSkipTimer",
      "postrollAD": "no",
      "postrollGotoLink": "postrollGotoLink",
      "postroll_mp4": "postroll_mp4",
      "postrollSkipTimer": "postrollSkipTimer",
      "popupAdShow": "no",
      "popupImg": "popupImg",
      "popupAdStartTime": "popupAdStartTime",
      "popupAdEndTime": "popupAdEndTime",
      "popupAdGoToLink": "popupAdGoToLink"
    }
  ],
  "submit": "Save Changes",
  "instanceTheme": "dark",
  "playerLayout": "fitToContainer",
  "videoPlayerWidth": 1006,
  "videoPlayerHeight": 420,
  "videoPlayerShadow": "effect5",
  "colorAccent": "rgb(204, 24, 30)",
  "posterImg": "",
  "logoShow": "Yes",
  "logoPath": "http:\/\/creativeinteractivemedia.com\/player\/Elite_video_player\/wp-content\/uploads\/2016\/11\/logo.png",
  "logoPosition": "bottom-left",
  "logoClickable": "Yes",
  "logoGoToLink": "http:\/\/codecanyon.net\/",
  "allowSkipAd": true,
  "lightBox": false,
  "lightBoxAutoplay": false,
  "lightBoxThumbnail": "",
  "lightBoxThumbnailWidth": 400,
  "lightBoxThumbnailHeight": 220,
  "lightBoxCloseOnOutsideClick": true,
  "onFinish": "Play next video",
  "autoplay": false,
  "loadRandomVideoOnStart": "No",
  "shuffle": "No",
  "playlist": "Right playlist",
  "playlistBehaviourOnPageload": "opened (default)",
  "playlistScrollType": "light",
  "hideVideoSource": true,
  "showAllControls": true,
  "rightClickMenu": true,
  "autohideControls": 2,
  "hideControlsOnMouseOut": "No",
  "fullscreen": "Fullscreen native",
  "nowPlayingText": "Yes",
  "infoShow": "Yes",
  "shareShow": "Yes",
  "facebookShow": "Yes",
  "twitterShow": "Yes",
  "mailShow": "Yes",
  "facebookShareName": "Elite video player",
  "facebookShareLink": "http:\/\/codecanyon.net\/item\/elite-video-player-wordpress-plugin\/10496434",
  "facebookShareDescription": "Elite Video Player is stunning, modern, responsive, fully customisable high-end video player for WordPress that support advertising and the most popular video platforms like YouTube, Vimeo or self-hosting videos (mp4).",
  "facebookSharePicture": "https:\/\/0.s3.envato.com\/files\/123866118\/preview.jpg",
  "twitterText": "Elite video player",
  "twitterLink": "http:\/\/codecanyon.net\/item\/elite-video-player-wordpress-plugin\/10496434",
  "twitterHashtags": "wordpressvideoplayer",
  "twitterVia": "Creative media",
  "googlePlus": "http:\/\/codecanyon.net\/item\/elite-video-player-wordpress-plugin\/10496434",
  "embedShow": "Yes",
  "embedCodeSrc": "http:\/\/yourwebsite.com\/player\/deploy\/index.html",
  "embedCodeW": 746,
  "embedCodeH": 420,
  "embedShareLink": "http:\/\/codecanyon.net\/",
  "youtubeControls": "custom controls",
  "youtubeSkin": "dark",
  "youtubeColor": "red",
  "youtubeQuality": "default",
  "youtubeShowRelatedVideos": "Yes",
  "vimeoColor": "00adef",
  "videoType": "HTML5 (self-hosted)",
  "preloadSelfHosted": "none",
  "videoRatio": 1.77777777778,
  "videoRatioStretch": false,
  "posterImgOnVideoFinish": "",
  "advertisementTitle": "Advertisement",
  "skipAdvertisementText": "Skip advertisement",
  "skipAdText": "You can skip this ad in",
  "playBtnTooltipTxt": "Play",
  "pauseBtnTooltipTxt": "Pause",
  "rewindBtnTooltipTxt": "Rewind",
  "downloadVideoBtnTooltipTxt": "Download video",
  "qualityBtnOpenedTooltipTxt": "Close settings",
  "qualityBtnClosedTooltipTxt": "Settings",
  "muteBtnTooltipTxt": "Mute",
  "unmuteBtnTooltipTxt": "Unmute",
  "fullscreenBtnTooltipTxt": "Fullscreen",
  "exitFullscreenBtnTooltipTxt": "Exit fullscreen",
  "infoBtnTooltipTxt": "Show info",
  "embedBtnTooltipTxt": "Embed",
  "shareBtnTooltipTxt": "Share",
  "volumeTooltipTxt": "Volume",
  "playlistBtnClosedTooltipTxt": "Show playlist",
  "playlistBtnOpenedTooltipTxt": "Hide playlist",
  "facebookBtnTooltipTxt": "Share on Facebook",
  "twitterBtnTooltipTxt": "Share on Twitter",
  "googlePlusBtnTooltipTxt": "Share on Google+",
  "lastBtnTooltipTxt": "Go to last video",
  "firstBtnTooltipTxt": "Go to first video",
  "nextBtnTooltipTxt": "Play next video",
  "previousBtnTooltipTxt": "Play previous video",
  "shuffleBtnOnTooltipTxt": "Shuffle on",
  "shuffleBtnOffTooltipTxt": "Shuffle off",
  "nowPlayingTooltipTxt": "NOW PLAYING",
  "embedWindowTitle1": "SHARE THIS PLAYER:",
  "embedWindowTitle2": "EMBED THIS VIDEO IN YOUR SITE:",
  "embedWindowTitle3": "SHARE LINK TO THIS PLAYER:",
  "showGlobalPrerollAds": false,
  "globalPrerollAds": "url1;url2;url3;url4;url5",
  "globalPrerollAdsSkipTimer": 5,
  "globalPrerollAdsGotoLink": "http:\/\/codecanyon.net\/",
  "floatPlayerOutsideViewport": false,
  "iOSPlaysinline": true,
  "rootFolder": "http:\/\/creativeinteractivemedia.com\/player\/Elite_video_player\/wp-content\/plugins\/Elite-video-player\/"
}
                                          